…
Below mentioned R chunk is used to launch the app.

``` r
library(covidasia)
launch_app()
```
Below is a preview of the app.

<img src="man/eg1.PNG" width="70%"/>

Below is a preview of the dataset.

``` r
asia_filter
# A tibble: 1,883 x 16
# Groups:   id [7]
   id    date       tests administrative_~ confirmed deaths recovered Daily_Cases Daily_Deaths Daily_Recoveries cancel_events
   <chr> <date>     <int> <chr>                <int>  <int>     <int>       <int>        <int>            <int>         <int>
 1 BGD   2020-01-25    NA Bangladesh              NA     NA        NA          NA           NA               NA             0
 2 BGD   2020-01-26    NA Bangladesh              NA     NA        NA          NA           NA               NA             0
 3 BGD   2020-01-27    NA Bangladesh              NA     NA        NA          NA           NA               NA             0
 4 BGD   2020-01-28    NA Bangladesh              NA     NA        NA          NA           NA               NA             0
 5 BGD   2020-01-29    NA Bangladesh              NA     NA        NA          NA           NA               NA             0
 6 BGD   2020-01-30    NA Bangladesh              NA     NA        NA          NA           NA               NA             0
 7 BGD   2020-01-31    NA Bangladesh              NA     NA        NA          NA           NA               NA             0
 8 BGD   2020-02-01    NA Bangladesh              NA     NA        NA          NA           NA               NA             0
 9 BGD   2020-02-02    NA Bangladesh              NA     NA        NA          NA           NA               NA             0
10 BGD   2020-02-03    NA Bangladesh              NA     NA        NA          NA           NA               NA             0
# ... with 1,873 more rows, and 5 more variables: stay_home_restrictions <int>, international_movement_restrictions <int>,
#   contact_tracing <int>, stringency_index <dbl>, active_cases <int>
```
